{
    "name": "Bulk Content Generator",
    "uri": "https://bitbucket.org/pupi1985/q2a-bulk-content-generator-public",
    "description": "Gives admins the ability to generate content on their sites by means of file uploads",
    "version": "2.1.1",
    "date": "2023-05-20",
    "author": "Gabriel Zanetti",
    "author_uri": "https://question2answer.org/qa/user/pupi1985",
    "license": "GPLv3",
    "update_uri": "https://bitbucket.org/pupi1985/q2a-bulk-content-generator-public/raw/master/metadata.json",
    "min_q2a": "1.7.0",
    "min_php": "7.2.0",
    "load_order": "after_db_init"
}
